%YAML 1.1
%TAG !u! tag:unity3d.com,2011:
--- !u!21 &2100000
Material:
  serializedVersion: 6
  m_ObjectHideFlags: 0
  m_PrefabParentObject: {fileID: 0}
  m_PrefabInternal: {fileID: 0}
  m_Name: treeLeaves_0
  m_Shader: {fileID: 46, guid: 0000000000000000f000000000000000, type: 0}
  m_ShaderKeywords: N_F_SS_ON _ALPHABLEND_ON _EMISSION _RIMLIGHTINLIGHT_ON _SELFLITHIGHCONTRAST_ON
    _SELFSHADOWSHADOWTATVIEWDIRECTION_ON
  m_LightmapFlags: 0
  m_EnableInstancingVariants: 0
  m_DoubleSidedGI: 0
  m_CustomRenderQueue: 3000
  stringTagMap:
    RenderType: Transparent
  disabledShaderPasses:
  - ALWAYS
  m_SavedProperties:
    serializedVersion: 3
    m_TexEnvs:
    - _BumpMap:
        m_Texture: {fileID: 0}
        m_Scale: {x: 1, y: 1}
        m_Offset: {x: 0, y: 0}
    - _DetailAlbedoMap:
        m_Texture: {fileID: 0}
        m_Scale: {x: 1, y: 1}
        m_Offset: {x: 0, y: 0}
    - _DetailMask:
        m_Texture: {fileID: 0}
        m_Scale: {x: 1, y: 1}
        m_Offset: {x: 0, y: 0}
    - _DetailNormalMap:
        m_Texture: {fileID: 0}
        m_Scale: {x: 1, y: 1}
        m_Offset: {x: 0, y: 0}
    - _EmissionMap:
        m_Texture: {fileID: 0}
        m_Scale: {x: 1, y: 1}
        m_Offset: {x: 0, y: 0}
    - _FReflection:
        m_Texture: {fileID: 0}
        m_Scale: {x: 1, y: 1}
        m_Offset: {x: 0, y: 0}
    - _GlossMap:
        m_Texture: {fileID: 0}
        m_Scale: {x: 1, y: 1}
        m_Offset: {x: 0, y: 0}
    - _GlossTexture:
        m_Texture: {fileID: 0}
        m_Scale: {x: 1, y: 1}
        m_Offset: {x: 0, y: 0}
    - _Illum:
        m_Texture: {fileID: 2800000, guid: b10ca1d816ceda441bc323e87905c4fd, type: 3}
        m_Scale: {x: 1, y: 1}
        m_Offset: {x: 0, y: 0}
    - _MainTex:
        m_Texture: {fileID: 2800000, guid: c26ccfff241e7eb468d6a7e3257412bb, type: 3}
        m_Scale: {x: 1, y: 1}
        m_Offset: {x: 0, y: 0}
    - _MaskGloss:
        m_Texture: {fileID: 0}
        m_Scale: {x: 1, y: 1}
        m_Offset: {x: 0, y: 0}
    - _MaskReflection:
        m_Texture: {fileID: 0}
        m_Scale: {x: 1, y: 1}
        m_Offset: {x: 0, y: 0}
    - _MaskSelfLit:
        m_Texture: {fileID: 0}
        m_Scale: {x: 1, y: 1}
        m_Offset: {x: 0, y: 0}
    - _MaskTransparency:
        m_Texture: {fileID: 0}
        m_Scale: {x: 1, y: 1}
        m_Offset: {x: 0, y: 0}
    - _MetallicGlossMap:
        m_Texture: {fileID: 0}
        m_Scale: {x: 1, y: 1}
        m_Offset: {x: 0, y: 0}
    - _NormalMap:
        m_Texture: {fileID: 0}
        m_Scale: {x: 1, y: 1}
        m_Offset: {x: 0, y: 0}
    - _OcclusionMap:
        m_Texture: {fileID: 0}
        m_Scale: {x: 1, y: 1}
        m_Offset: {x: 0, y: 0}
    - _OutlineWidthControl:
        m_Texture: {fileID: 0}
        m_Scale: {x: 1, y: 1}
        m_Offset: {x: 0, y: 0}
    - _PTexture:
        m_Texture: {fileID: 0}
        m_Scale: {x: 1, y: 1}
        m_Offset: {x: 0, y: 0}
    - _ParallaxMap:
        m_Texture: {fileID: 0}
        m_Scale: {x: 1, y: 1}
        m_Offset: {x: 0, y: 0}
    - _Ramp:
        m_Texture: {fileID: 2800000, guid: 948e1b7327c293a4081ba3c18eaab19f, type: 3}
        m_Scale: {x: 1, y: 1}
        m_Offset: {x: 0, y: 0}
    - _ShadowColorTexture:
        m_Texture: {fileID: 0}
        m_Scale: {x: 1, y: 1}
        m_Offset: {x: 0, y: 0}
    - _ShadowOffset:
        m_Texture: {fileID: 0}
        m_Scale: {x: 1, y: 1}
        m_Offset: {x: 0, y: 0}
    - _ShadowT:
        m_Texture: {fileID: 0}
        m_Scale: {x: 1, y: 1}
        m_Offset: {x: 0, y: 0}
    - _ToonShade:
        m_Texture: {fileID: 0}
        m_Scale: {x: 1, y: 1}
        m_Offset: {x: 0, y: 0}
    - _TranslucencyMap:
        m_Texture: {fileID: 0}
        m_Scale: {x: 1, y: 1}
        m_Offset: {x: 0, y: 0}
    m_Floats:
    - _AO: 3.81
    - _BaseLight: 0.51
    - _BlendOp: 0
    - _BumpScale: 1
    - _CameraFadingEnabled: 0
    - _CameraFarFadeDistance: 2
    - _CameraNearFadeDistance: 1
    - _ColorMode: 0
    - _Compa: 8
    - _Cull: 0
    - _CustomLightDirectionFollowObjectRotation: 0
    - _CustomLightDirectionIntensity: 0
    - _Cutoff: 0.69
    - _DetailNormalMapScale: 1
    - _DistortionBlend: 0.07
    - _DistortionEnabled: 0
    - _DistortionStrength: -12.48
    - _DistortionStrengthScaled: -1.248
    - _DoubleSided: 0
    - _DstBlend: 10
    - _DynamicNoisyOutline: 0
    - _EOPO: 0
    - _EmissionEnabled: 0
    - _EnvironmentalLightingIntensity: 1
    - _FlipbookMode: 0
    - _GIFlatShade: 0
    - _GIShadeThreshold: 0
    - _GlossColorPower: 10
    - _GlossIntensity: 1
    - _GlossMapScale: 1
    - _GlossSoftness: 0
    - _GlossTextureFollowLight: 0
    - _GlossTextureFollowObjectRotation: 0
    - _GlossTextureRotate: 0
    - _GlossTextureSoftness: 0
    - _Glossiness: 0
    - _GlossyReflections: 1
    - _HighlightColorPower: 1
    - _InvFade: 1
    - _LightAffectOutlineColor: 0
    - _LightAffectRimLightColor: 0
    - _LightAffectShadow: 0
    - _LightCutoff: 0
    - _LightFalloffAffectShadowT: 0
    - _LightFalloffSoftness: 1
    - _LightIntensity: -1
    - _LightingEnabled: 0
    - _Metallic: 0
    - _Mode: 2
    - _N_F_CA: 0
    - _N_F_CLD: 0
    - _N_F_FR: 0
    - _N_F_GLO: 0
    - _N_F_GLOT: 0
    - _N_F_O: 0
    - _N_F_PT: 0
    - _N_F_R: 0
    - _N_F_RL: 0
    - _N_F_SCT: 0
    - _N_F_SL: 0
    - _N_F_SON: 0
    - _N_F_SS: 1
    - _N_F_ST: 0
    - _N_F_STIAL: 0
    - _N_F_STIS: 0
    - _NoisyOutlineIntensity: 0
    - _NormalMapIntensity: 0
    - _Occlusion: 2
    - _OcclusionStrength: 1
    - _Opacity: 1
    - _Oper: 8
    - _Outline: 0.005
    - _OutlineWidth: 0.5
    - _OutlineWidthAffectedByViewDistance: 0
    - _OverallShadowColorPower: 0
    - _PTexturePower: 1
    - _Parallax: 0.02
    - _PointSpotlightIntensity: 0.3
    - _ReduceOutlineBackFace: 0
    - _ReduceTextureQuality: 0
    - _RefVal: 0
    - _ReflectionIntensity: 0
    - _ReflectionRoughtness: 0
    - _RimLightColorPower: 10
    - _RimLightInLight: 1
    - _RimLightSoftness: 1
    - _RimLightUnfill: 1.5
    - _Saturation: 1
    - _SelfLitHighContrast: 1
    - _SelfLitIntensity: 0
    - _SelfLitPower: 2
    - _SelfShadowAffectedByLightShadowStrength: 0
    - _SelfShadowColorPower: 1
    - _SelfShadowHardness: 0
    - _SelfShadowIntensity: 0
    - _SelfShadowShadowTAtViewDirection: 1
    - _SelfShadowThreshold: 0
    - _ShadowColorTexturePower: 0
    - _ShadowSharpness: 14.29
    - _ShadowStrength: 1
    - _ShadowTColorPower: 1
    - _ShadowTHardness: 1
    - _ShadowTIntensity: 1
    - _ShadowTLightThreshold: 0.5
    - _ShadowTShadowThreshold: 0
    - _ShadowThreshold: 96.8
    - _ShakeBending: 0.3
    - _ShakeDisplacement: 1
    - _ShakeTime: 1
    - _ShakeWindspeed: 0
    - _Shininess: 0.48
    - _ShowInAmbientLightIntensity: 1
    - _ShowInAmbientLightShadowThreshold: 0.4
    - _ShowNormal: 0
    - _SmoothObjectNormal: 0
    - _SmoothnessTextureChannel: 0
    - _SoftParticlesEnabled: 0
    - _SoftParticlesFarFadeDistance: 0.14
    - _SoftParticlesNearFadeDistance: 0
    - _SpecularHighlights: 1
    - _SquashAmount: 1
    - _SrcBlend: 5
    - _TexturePatternStyle: 0
    - _TranslucencyViewDependency: 0.7
    - _UVSec: 0
    - _UseFReflection: 0
    - _VertexColorBlueControlSmoothObjectNormal: 0
    - _VertexColorGreenControlSelfShadowThreshold: 0
    - _VertexColorRedAffectOutlineWitdh: 0
    - _XYZHardness: 14
    - _ZWrite: 0
    m_Colors:
    - _CameraFadeParams: {r: 0, g: Infinity, b: 0, a: 0}
    - _Color: {r: 1, g: 1, b: 1, a: 1}
    - _ColorAddSubDiff: {r: 0, g: 0, b: 0, a: 0}
    - _CustomLightDirection: {r: 0, g: 0, b: 10, a: 0}
    - _EmissionColor: {r: 0, g: 0, b: 0, a: 1}
    - _GlossColor: {r: 1, g: 1, b: 1, a: 1}
    - _HColor: {r: 0.6, g: 0.6, b: 0.6, a: 1}
    - _HighlightColor: {r: 1, g: 1, b: 1, a: 1}
    - _MainColor: {r: 0.7843137, g: 0.7843137, b: 0.7843137, a: 1}
    - _OutlineColor: {r: 0, g: 0, b: 0, a: 1}
    - _OutlineOffset: {r: 0, g: 0, b: 0, a: 1}
    - _OverallShadowColor: {r: 0.030882347, g: 0.1544118, b: 0, a: 1}
    - _RimLightColor: {r: 1, g: 1, b: 1, a: 1}
    - _SColor: {r: 0.32352942, g: 0, b: 0, a: 1}
    - _SelfLitColor: {r: 1, g: 1, b: 1, a: 1}
    - _SelfShadowColor: {r: 1, g: 1, b: 1, a: 1}
    - _ShadowColor: {r: 1, g: 1, b: 1, a: 1}
    - _ShadowTColor: {r: 1, g: 1, b: 1, a: 1}
    - _SoftParticleFadeParams: {r: 0, g: 0, b: 0, a: 0}
    - _TranslucencyColor: {r: 0.73, g: 0.85, b: 0.41, a: 1}
    - _TreeInstanceColor: {r: 1, g: 1, b: 1, a: 1}
    - _TreeInstanceScale: {r: 1, g: 1, b: 1, a: 1}
    - _XYZPosition: {r: 0, g: 0, b: 0, a: 0}
